%YAML 1.1
%TAG !u! tag:unity3d.com,2011:
--- !u!1045 &1
EditorBuildSettings:
  m_ObjectHideFlags: 0
  serializedVersion: 2
  m_Scenes:
  - enabled: 0
    path: 
    guid: 00000000000000000000000000000000
  - enabled: 0
    path: 
    guid: 00000000000000000000000000000000
  - enabled: 1
    path: Assets/Scenes/Opening/FC-Logo.unity
    guid: 686c59d0f87b1574ab62d2b5f885c002
  - enabled: 1
    path: Assets/Scenes/Opening/MBT-Logo.unity
    guid: a88c3db51093d2845986fcc114a6a96e
  - enabled: 1
    path: Assets/Scenes/Opening/BlackScreen.unity
    guid: 7163599524c9f344f8052f3c94af2e90
  - enabled: 1
    path: Assets/Scenes/Opening/MainMenu(Start).unity
    guid: aad223a4035422c4a90ebf7b5d2b5e5e
  - enabled: 1
    path: Assets/Scenes/Cutscene/FirstCutscene.unity
    guid: 031d8486785f9b746a412b6e63fb64b0
  - enabled: 1
    path: Assets/Scenes/Cutscene/SecondCutscene.unity
    guid: 7f8b98312f85815438015a1dc69eb9e3
  - enabled: 1
    path: Assets/Scenes/Cutscene/ThirdCutscene.unity
    guid: 5897b9ce3e3358b4c80689ef24a56406
  - enabled: 1
    path: Assets/Scenes/Cutscene/FourthCutscene.unity
    guid: ba487de292e60854c8c3aa6943c96c69
  - enabled: 1
    path: Assets/Scenes/Cutscene/FifthCutscene.unity
    guid: 7ac800a0013e83a41a1e06769bff8e8e
  - enabled: 1
    path: Assets/Scenes/Cutscene/SixthCutscene.unity
    guid: 8eaeb5a3ebce7814a9cbc8a0b3e70867
  - enabled: 1
    path: Assets/Scenes/LoadingScreens/LoadingLevel0.unity
    guid: 2a70577b36ae5ec4d93c798d13e9f0d5
  - enabled: 1
    path: Assets/Scenes/Levels/Level0.unity
    guid: a5ae909ea3dc40349b469a1f89569fbc
  - enabled: 1
    path: Assets/Scenes/Levels/Checkpoints/Level0Checkpoint.unity
    guid: b7a572097438e7f4b851996e11f0a503
  - enabled: 1
    path: Assets/Scenes/LoadingScreens/LoadingLevel1.unity
    guid: 920eb28777e3713468b55ecaa7207a93
  - enabled: 1
    path: Assets/Scenes/Levels/Level1.unity
    guid: de108bc94d6e1d5498e2e9a658afb4ba
  - enabled: 1
    path: Assets/Scenes/Levels/Checkpoints/Level1Checkpoint.unity
    guid: d34fcbdeef2c4c9438cf91db1c23c4d1
  - enabled: 1
    path: Assets/Scenes/LoadingScreens/LoadingLevel2.unity
    guid: 22deb1dee41033e4daa7a354d53f569f
  - enabled: 1
    path: Assets/Scenes/Levels/Level2.unity
    guid: 1e0ea48d96c824f41aec093814266b96
  - enabled: 1
    path: Assets/Scenes/Levels/Checkpoints/Level2Checkpoint.unity
    guid: 94d4610fb46a4e0479490cc665af3463
  - enabled: 1
    path: Assets/Scenes/LoadingScreens/LoadingLevel3.unity
    guid: 3069b3046aaeb92479749b91e3ed3198
  - enabled: 1
    path: Assets/Scenes/Levels/Level3.unity
    guid: bdf0e99523e03bb4f86e1f7f8589dd5f
  - enabled: 1
    path: Assets/Scenes/Levels/Checkpoints/Level3Checkpoint.unity
    guid: b377f0ca847e44f4299132a2bee1d215
  - enabled: 1
    path: Assets/Scenes/Cutscene/FinalCutscene.unity
    guid: e52fd521b2b85af4b98287d8eaef7055
  - enabled: 1
    path: Assets/Scenes/LoadingScreens/LoadingEnding.unity
    guid: a0e18504bff1e174780db1faa963a4d4
  - enabled: 1
    path: Assets/Scenes/Ending/Credits.unity
    guid: 9144ac5f8b1389248a14f365793615e1
  - enabled: 1
    path: Assets/Scenes/Ending/MainMenu(End).unity
    guid: 28e79d6c0edb5a7468f054094d4d9dcf
  m_configObjects: {}
